googleCTF/avr/gtkwave_trace.vcd
$timescale 10ns $end
$scope module logic $end
$var wire 8 ! UDR0 $end
$var wire 1 " UDRE0 $end
$upscope $end
$enddefinitions $end
$dumpvars
bxxxxxxxx !
x"
$end
#16975
1"
#17025
b01010010 !
#18237
0"
#18300
1"
#18350
b01100101 !
#19562
0"
#19625
1"
#19675
b01100001 !
#20887
0"
#20950
1"
#21000
b01100100 !
#22212
0"
#22275
1"
#22325
b00100000 !
#23537
0"
#23600
1"
#23650
b01100110 !
#24862
0"
#24925
1"
#24975
b01110010 !
#26187
0"
#26250
1"
#26300
b01101111 !
#27512
0"
#27575
1"
#27625
b01101101 !
#28837
0"
#28900
1"
#28950
b00100000 !
#30162
0"
#30225
1"
#30275
b01100101 !
#31487
0"
#31550
1"
#31600
b01100101 !
#32812
0"
#32875
1"
#32925
b01110000 !
#34137
0"
#34200
1"
#34250
b01110010 !
#35462
0"
#35525
1"
#35575
b01101111 !
#36787
0"
#36850
1"
#36900
b01101101 !
#38112
0"
#38175
1"
#38225
b00100000 !
#39437
0"
#39500
1"
#39550
b00110000 !
#40762
0"
#40825
1"
#40875
b01111000 !
#50750
b01100100 !
#51812
0"
#52000
1"
#52050
b01100101 !
#53112
0"
#53300
1"
#53350
b01100001 !
#54412
0"
#54600
1"
#54650
b01100100 !
#55712
0"
#55900
1"
#55950
b01100010 !
#57012
0"
#57200
1"
#57250
b01100101 !
#58312
0"
#58500
1"
#58550
b01100101 !
#59612
0"
#59800
1"
#59850
b01100110 !
#61200
b00100000 !
#62412
0"
#62475
1"
#62525
b00101101 !
#63737
0"
#63800
1"
#63850
b00101101 !
#65062
0"
#65125
1"
#65175
b00100000 !
#66387
0"
#66450
1"
#66500
b01110011 !
#67712
0"
#67775
1"
#67825
b01101000 !
#69037
0"
#69100
1"
#69150
b01101111 !
#70362
0"
#70425
1"
#70475
b01110101 !
#71687
0"
#71750
1"
#71800
b01101100 !
#73012
0"
#73075
1"
#73125
b01100100 !
#74337
0"
#74400
1"
#74450
b00100000 !
#75662
0"
#75725
1"
#75775
b01100010 !
#76987
0"
#77050
1"
#77100
b01100101 !
#78312
0"
#78375
1"
#78425
b00100000 !
#79637
0"
#79700
1"
#79750
b00110000 !
#80962
0"
#81025
1"
#81075
b01111000 !
#82287
0"
#82350
1"
#82400
b01100100 !
#83612
0"
#83675
1"
#83725
b01100101 !
#84937
0"
#85000
1"
#85050
b01100001 !
#86262
0"
#86325
1"
#86375
b01100100 !
#87587
0"
#87650
1"
#87700
b01100010 !
#88912
0"
#88975
1"
#89025
b01100101 !
#90237
0"
#90300
1"
#90350
b01100101 !
#91562
0"
#91625
1"
#91675
b01100110 !
#93050
b00001101 !
#93175
0"
#94300
1"
#94350
b00001010 !
#100612
b01010010 !
#101825
0"
#101887
1"
#101937
b01100101 !
#103150
0"
#103212
1"
#103262
b01100001 !
#104475
0"
#104537
1"
#104587
b01100100 !
#105800
0"
#105862
1"
#105912
b00100000 !
#107125
0"
#107187
1"
#107237
b01100110 !
#108450
0"
#108512
1"
#108562
b01110010 !
#109775
0"
#109837
1"
#109887
b01101111 !
#111100
0"
#111162
1"
#111212
b01101101 !
#112425
0"
#112487
1"
#112537
b00100000 !
#113750
0"
#113812
1"
#113862
b01100101 !
#115075
0"
#115137
1"
#115187
b01100101 !
#116400
0"
#116462
1"
#116512
b01110000 !
#117725
0"
#117787
1"
#117837
b01110010 !
#119050
0"
#119112
1"
#119162
b01101111 !
#120375
0"
#120437
1"
#120487
b01101101 !
#121700
0"
#121762
1"
#121812
b00100000 !
#123025
0"
#123087
1"
#123137
b00110000 !
#124350
0"
#124412
1"
#124462
b01111000 !
#134287
b01100011 !
#135350
0"
#135537
1"
#135587
b01100001 !
#136650
0"
#136837
1"
#136887
b01100110 !
#137950
0"
#138137
1"
#138187
b01100101 !
#139250
0"
#139437
1"
#139487
b01100110 !
#140550
0"
#140737
1"
#140787
b00110000 !
#141850
0"
#142037
1"
#142087
b00110000 !
#143150
0"
#143337
1"
#143387
b01100100 !
#144737
b00100000 !
#145950
0"
#146012
1"
#146062
b00101101 !
#147275
0"
#147337
1"
#147387
b00101101 !
#148600
0"
#148662
1"
#148712
b00100000 !
#149925
0"
#149987
1"
#150037
b01110011 !
#151250
0"
#151312
1"
#151362
b01101000 !
#152575
0"
#152637
1"
#152687
b01101111 !
#153900
0"
#153962
1"
#154012
b01110101 !
#155225
0"
#155287
1"
#155337
b01101100 !
#156550
0"
#156612
1"
#156662
b01100100 !
#157875
0"
#157937
1"
#157987
b00100000 !
#159200
0"
#159262
1"
#159312
b01100010 !
#160525
0"
#160587
1"
#160637
b01100101 !
#161850
0"
#161912
1"
#161962
b00100000 !
#163175
0"
#163237
1"
#163287
b00110000 !
#164500
0"
#164562
1"
#164612
b01111000 !
#165825
0"
#165887
1"
#165937
b01100011 !
#167150
0"
#167212
1"
#167262
b01100001 !
#168475
0"
#168537
1"
#168587
b01100110 !
#169800
0"
#169862
1"
#169912
b01100101 !
#171125
0"
#171187
1"
#171237
b01100110 !
#172450
0"
#172512
1"
#172562
b00110000 !
#173775
0"
#173837
1"
#173887
b00110000 !
#175100
0"
#175162
1"
#175212
b01100100 !
#176587
b00001101 !
#176712
0"
#177837
1"
#177887
b00001010 !
